# Blender v2.69 (sub 0) OBJ File: 'level15.blend'
# www.blender.org
mtllib level15.mtl
o Cube.001_Cube.005_Cube.001_Cube.007
v 4.952378 0.851133 15.733382
v 4.952378 0.851138 -2.266618
v 4.952378 -2.148867 15.733382
v 5.952378 0.851138 -2.266618
v 4.952378 -2.148861 -2.266618
v 5.952378 0.851133 15.733382
v 5.952378 -2.148861 -2.266618
v 5.952378 -2.148867 15.733382
v -11.617376 0.851133 13.793957
v -11.617376 0.851138 -4.206044
v -11.617376 -2.148867 13.793956
v -10.617376 0.851138 -4.206044
v -11.617376 -2.148861 -4.206044
v -10.617376 0.851133 13.793957
v -10.617376 -2.148861 -4.206044
v -10.617376 -2.148867 13.793956
v -2.524856 0.851134 13.787815
v -10.641716 0.851138 13.787815
v -2.524857 -2.148866 13.787815
v -10.641716 0.851138 12.787813
v -10.641716 -2.148862 13.787815
v -2.524856 0.851134 12.787814
v -10.641716 -2.148861 12.787814
v -2.524857 -2.148866 12.787815
v 4.989178 0.851134 -1.292120
v -3.127683 0.851138 -1.292120
v 4.989177 -2.148866 -1.292120
v -3.127682 0.851138 -2.292120
v -3.127683 -2.148862 -1.292120
v 4.989178 0.851134 -2.292120
v -3.127683 -2.148862 -2.292120
v 4.989177 -2.148866 -2.292120
v 7.678433 0.851132 15.505954
v 7.678433 0.851138 -4.322181
v 7.678433 -2.148868 15.505952
v 8.678433 0.851138 -4.322181
v 7.678433 -2.148861 -4.322181
v 8.678433 0.851132 15.505954
v 8.678433 -2.148861 -4.322181
v 8.678433 -2.148868 15.505952
v 7.642401 0.851134 -3.543918
v -3.093182 0.851138 -3.543919
v 7.642401 -2.148866 -3.543918
v -3.093182 0.851138 -4.372441
v -3.093182 -2.148862 -3.543919
v 7.642401 0.851134 -4.372440
v -3.093182 -2.148862 -4.372441
v 7.642401 -2.148866 -4.372440
v -12.406370 0.851132 -4.097713
v -12.406345 0.851138 15.730422
v -12.406370 -2.148868 -4.097712
v -13.406343 0.851138 15.730422
v -12.406345 -2.148861 15.730422
v -13.406370 0.851132 -4.097712
v -13.406343 -2.148861 15.730424
v -13.406370 -2.148868 -4.097710
v -12.485052 0.851134 14.934632
v -2.585192 0.851138 14.934613
v -12.485050 -2.148866 14.934632
v -2.585191 0.851138 15.763135
v -2.585192 -2.148862 14.934613
v -12.485050 0.851134 15.763154
v -2.585190 -2.148862 15.763137
v -12.485048 -2.148866 15.763154
v -4.697727 0.849999 2.994470
v -4.697727 -2.148592 2.994470
v -4.697727 -2.148592 4.658217
v -4.697727 0.849999 4.658216
v -3.014327 0.849999 2.994470
v -3.014327 -2.148592 2.994470
v -3.681193 -2.148592 4.658217
v -3.681193 -2.148592 4.036252
v -3.014327 -2.148592 4.036252
v -3.681098 -2.148592 4.036252
v -3.681192 -1.014755 4.658217
v -3.681192 0.849999 4.658216
v -3.681192 0.849999 4.036632
v -3.014327 0.849999 4.036252
v -3.681192 0.849999 4.036252
v -3.014327 -0.241557 4.036252
v -1.678835 0.851135 5.690477
v -2.727746 0.851138 5.690477
v -1.678835 -2.148865 5.690477
v -2.727746 0.851138 4.690477
v -2.727746 -2.148862 5.690477
v -1.678835 0.851135 4.690477
v -2.727746 -2.148862 4.690477
v -1.678835 -2.148865 4.690477
v 0.181018 0.849999 2.984643
v 0.181018 -2.148592 2.984643
v -1.482728 -2.148592 2.984643
v -1.482728 0.849999 2.984643
v 0.181019 0.849999 4.668043
v 0.181019 -2.148592 4.668043
v -1.482728 -2.148592 4.001178
v -0.860764 -2.148592 4.001178
v -0.860764 -2.148592 4.668043
v -0.860764 -2.148592 4.001272
v -1.482728 -1.014755 4.001178
v -1.482728 0.849999 4.001178
v -0.861144 0.849999 4.001178
v -0.860764 0.849999 4.668043
v -0.860764 0.849999 4.001178
v -0.860764 -0.241557 4.668043
v -4.687900 0.849999 7.461209
v -4.687900 -2.148592 7.461209
v -3.024154 -2.148592 7.461209
v -3.024154 0.849999 7.461209
v -4.687900 0.849999 5.777810
v -4.687900 -2.148592 5.777810
v -3.024153 -2.148592 6.444675
v -3.646118 -2.148592 6.444675
v -3.646118 -2.148592 5.777810
v -3.646118 -2.148592 6.444581
v -3.024153 -1.014755 6.444675
v -3.024153 0.849999 6.444674
v -3.645738 0.849999 6.444674
v -3.646118 0.849999 5.777810
v -3.646118 0.849999 6.444674
v -3.646118 -0.241557 5.777810
v 0.190845 0.849999 7.421107
v 0.190845 -2.148592 7.421107
v 0.190845 -2.148592 5.757360
v 0.190845 0.849999 5.757360
v -1.492555 0.849999 7.421106
v -1.492555 -2.148592 7.421107
v -0.825689 -2.148592 5.757360
v -0.825689 -2.148592 6.379325
v -1.492554 -2.148592 6.379325
v -0.825783 -2.148592 6.379325
v -0.825689 -1.014755 5.757360
v -0.825689 0.849999 5.757360
v -0.825689 0.849999 6.378945
v -1.492554 0.849999 6.379325
v -0.825689 0.849999 6.379325
v -1.492554 -0.241557 6.379325
v 12.322706 0.809640 20.755091
v 12.322706 0.809648 -8.574862
v 12.322706 -2.190360 20.755091
v 13.316549 0.809648 -8.574862
v 12.322706 -2.190352 -8.574862
v 13.316551 0.809640 20.755091
v 13.316549 -2.190352 -8.574862
v 13.316549 -2.190360 20.755091
v -18.608337 0.809640 20.755089
v -18.608337 0.809648 -8.574864
v -18.608335 -2.190360 20.755089
v -17.614492 0.809648 -8.574864
v -18.608337 -2.190352 -8.574864
v -17.614492 0.809640 20.755089
v -17.614492 -2.190352 -8.574864
v -17.614492 -2.190360 20.755089
v 13.294415 0.809640 21.718082
v -18.530329 0.809648 21.718079
v 13.294415 -2.190360 21.718082
v -18.530329 0.809648 20.757998
v -18.530329 -2.190352 21.718079
v 13.294415 0.809640 20.758001
v -18.530329 -2.190352 20.757998
v 13.294415 -2.190360 20.758001
v -5.468986 0.809642 -8.589904
v -18.582264 0.809647 -8.589906
v -5.468988 -2.190358 -8.589904
v -18.582264 0.809647 -9.549986
v -18.582264 -2.190353 -8.589906
v -5.468986 0.809642 -9.549985
v -18.582264 -2.190353 -9.549986
v -5.468988 -2.190358 -9.549983
v 13.247351 0.809642 -8.589903
v 0.440751 0.809647 -8.589904
v 13.247351 -2.190358 -8.589903
v 0.440751 0.809647 -9.549985
v 0.440750 -2.190353 -8.589904
v 13.247351 0.809642 -9.549983
v 0.440751 -2.190353 -9.549983
v 13.247351 -2.190358 -9.549982
vt 0.000100 0.000100
vt 0.999900 0.000100
vt 0.000100 0.999900
vt 0.606179 1.089180
vt 0.393822 1.089183
vt 0.606178 -0.089183
vt 0.999900 0.999900
vt 0.537499 0.953227
vt 0.397659 0.953228
vt 0.537498 0.055967
vt 0.991098 0.570749
vt 0.008902 0.429251
vt 0.008902 0.570751
vt 0.393821 -0.089181
vt 0.397659 0.055967
vt 0.991098 0.429249
vt 0.393903 1.088736
vt 0.525901 1.088734
vt 0.525900 0.356281
vt 0.364258 0.635742
vt 0.999900 0.999520
vt 0.999810 0.000190
vt 0.364258 0.999521
vt 0.393822 1.088736
vt 0.393821 -0.089075
vt 0.525900 -0.089076
vt 0.364258 0.000191
vt 0.999900 0.000190
vt 1.000000 1.000000
vt 0.000000 1.000000
vt 1.000000 0.000000
vt 0.000000 0.000000
vn -1.000000 0.000000 0.000000
vn 0.000000 0.000000 -1.000000
vn 1.000000 0.000000 0.000000
vn 0.000000 -0.000001 1.000000
vn 0.000000 1.000000 0.000000
vn 0.000000 0.000000 1.000000
vn -1.000000 0.000001 0.000000
vn 1.000000 -0.000001 0.000000
vn 0.000001 1.000000 0.000000
vn 1.000000 0.000000 -0.000001
vn -1.000000 0.000000 0.000001
vn -0.000002 -0.000001 -1.000000
vn 0.000003 0.000001 1.000000
vn -0.000002 -0.000000 -1.000000
vn 1.000000 0.000000 -0.000002
vn 0.000002 0.000001 1.000000
vn -1.000000 -0.000001 0.000002
vn 0.000002 0.000000 1.000000
vn -0.000001 0.000000 1.000000
vn 0.000000 -1.000000 0.000000
vn 0.000000 -1.000000 -0.000001
vn 0.000000 -0.999988 -0.004854
vn -0.000001 -1.000000 0.000000
vn 0.000001 -0.000000 1.000000
vn 0.000003 1.000000 0.000000
vn 0.000001 -0.000000 -1.000000
vn 0.000002 -0.000000 -1.000000
vn 0.000000 1.000000 -0.000309
vn 0.000000 1.000000 0.000309
vn 0.000000 -0.999988 0.004845
vn 0.000000 -0.000001 -1.000000
usemtl mapa.009
s off
f 33/1/1 34/2/1 35/3/1
f 34/4/2 36/5/2 37/6/2
f 36/7/3 38/3/3 39/2/3
f 38/8/4 33/9/4 40/10/4
f 36/11/5 33/12/5 38/13/5
f 34/2/1 37/7/1 35/3/1
f 36/5/2 39/14/2 37/6/2
f 38/3/3 40/1/3 39/2/3
f 33/9/4 35/15/4 40/10/4
f 34/16/5 33/12/5 36/11/5
usemtl mapa.002
f 1/1/1 2/2/1 3/3/1
f 2/4/2 4/5/2 5/6/2
f 4/7/3 6/3/3 7/2/3
f 6/8/6 1/9/6 8/10/6
f 4/11/5 1/12/5 6/13/5
f 2/2/1 5/7/1 3/3/1
f 4/5/2 7/14/2 5/6/2
f 6/3/3 8/1/3 7/2/3
f 1/9/6 3/15/6 8/10/6
f 2/16/5 1/12/5 4/11/5
usemtl mapa.003
f 9/1/7 10/2/7 11/3/7
f 10/4/2 12/5/2 13/6/2
f 12/7/3 14/3/3 15/2/3
f 14/8/6 9/9/6 16/10/6
f 12/11/5 9/12/5 14/13/5
f 10/2/1 13/7/1 11/3/1
f 12/5/2 15/14/2 13/6/2
f 14/3/8 16/1/8 15/2/8
f 9/9/6 11/15/6 16/10/6
f 10/16/5 9/12/5 12/11/5
usemtl mapa.004
f 17/1/6 18/2/6 19/3/6
f 18/4/1 20/5/1 21/6/1
f 20/7/2 22/3/2 23/2/2
f 22/8/3 17/9/3 24/10/3
f 20/11/9 17/12/9 22/13/9
f 18/2/6 21/7/6 19/3/6
f 20/5/7 23/14/7 21/6/7
f 22/3/2 24/1/2 23/2/2
f 17/9/3 19/15/3 24/10/3
f 18/16/9 17/12/9 20/11/9
usemtl mapa.007
f 25/1/6 26/2/6 27/3/6
f 26/4/1 28/5/1 29/6/1
f 28/7/2 30/3/2 31/2/2
f 30/8/3 25/9/3 32/10/3
f 28/11/9 25/12/9 30/13/9
f 26/2/6 29/7/6 27/3/6
f 28/5/1 31/14/1 29/6/1
f 30/3/2 32/1/2 31/2/2
f 25/9/3 27/15/3 32/10/3
f 26/16/9 25/12/9 28/11/9
usemtl mapa.020
f 41/1/6 42/2/6 43/3/6
f 42/4/1 44/5/1 45/6/1
f 44/7/2 46/3/2 47/2/2
f 46/8/3 41/9/3 48/10/3
f 44/11/5 41/12/5 46/13/5
f 42/2/6 45/7/6 43/3/6
f 44/5/1 47/14/1 45/6/1
f 46/3/2 48/1/2 47/2/2
f 41/9/3 43/15/3 48/10/3
f 42/16/5 41/12/5 44/11/5
usemtl mapa.011
f 49/1/10 50/2/10 51/3/10
f 50/4/6 52/5/6 53/6/6
f 52/7/11 54/3/11 55/2/11
f 54/8/12 49/9/12 56/10/12
f 52/11/5 49/12/5 54/13/5
f 50/2/10 53/7/10 51/3/10
f 52/5/13 55/14/13 53/6/13
f 54/3/11 56/1/11 55/2/11
f 49/9/14 51/15/14 56/10/14
f 50/16/5 49/12/5 52/11/5
usemtl mapa.012
f 57/1/14 58/2/14 59/3/14
f 58/4/15 60/5/15 61/6/15
f 60/7/16 62/3/16 63/2/16
f 62/8/17 57/9/17 64/10/17
f 60/11/5 57/12/5 62/13/5
f 58/2/14 61/7/14 59/3/14
f 60/5/15 63/14/15 61/6/15
f 62/3/18 64/1/18 63/2/18
f 57/9/17 59/15/17 64/10/17
f 58/16/5 57/12/5 60/11/5
usemtl mapa.012_zid.jpg.016
f 77/17/3 76/18/3 75/19/3
f 80/20/6 79/21/6 74/22/6
f 80/20/6 78/23/6 79/21/6
f 79/24/3 77/17/3 72/25/3
f 75/19/8 71/26/8 72/25/8
f 74/22/6 73/27/6 80/20/6
f 79/21/6 72/28/6 74/22/6
f 77/17/3 75/19/3 72/25/3
usemtl mapa.012_NONE
f 65/29/1 66/30/1 68/31/1
f 66/29/2 65/30/2 70/31/2
f 80/32/3 73/31/3 69/30/3
f 69/32/3 78/31/3 80/29/3
f 75/32/19 76/31/19 67/30/19
f 67/32/6 71/31/6 75/29/6
f 70/32/20 74/31/20 66/30/20
f 70/32/21 73/31/21 74/29/21
f 71/32/20 67/31/20 66/29/20
f 65/32/5 76/31/5 77/29/5
f 65/29/5 79/30/5 78/32/5
f 65/32/5 68/31/5 76/29/5
f 66/30/1 67/32/1 68/31/1
f 65/30/2 69/32/2 70/31/2
f 73/31/3 70/29/3 69/30/3
f 76/31/6 68/29/6 67/30/6
f 74/31/22 72/29/22 66/30/22
f 72/30/23 71/32/23 66/29/23
f 79/30/5 65/32/5 77/29/5
f 69/31/5 65/29/5 78/32/5
usemtl mapa.015
f 81/1/24 82/2/24 83/3/24
f 82/4/1 84/5/1 85/6/1
f 84/7/2 86/3/2 87/2/2
f 86/8/3 81/9/3 88/10/3
f 84/11/25 81/12/25 86/13/25
f 82/2/6 85/7/6 83/3/6
f 84/5/1 87/14/1 85/6/1
f 86/3/2 88/1/2 87/2/2
f 81/9/3 83/15/3 88/10/3
f 82/16/25 81/12/25 84/11/25
usemtl mapa.015_zid.jpg.020
f 101/17/6 100/18/6 99/19/6
f 104/20/1 103/21/1 98/22/1
f 104/20/1 102/23/1 103/21/1
f 103/24/6 101/17/6 96/25/6
f 99/19/6 95/26/6 96/25/6
f 98/22/1 97/27/1 104/20/1
f 103/21/1 96/28/1 98/22/1
f 101/17/24 99/19/24 96/25/24
usemtl mapa.015_zid.jpg.021
f 117/17/2 116/18/2 115/19/2
f 120/20/3 119/21/3 114/22/3
f 120/20/3 118/23/3 119/21/3
f 119/24/2 117/17/2 112/25/2
f 115/19/26 111/26/26 112/25/26
f 114/22/3 113/27/3 120/20/3
f 119/21/3 112/28/3 114/22/3
f 117/17/27 115/19/27 112/25/27
usemtl mapa.015_zid.jpg.022
f 133/17/1 132/18/1 131/19/1
f 136/20/2 135/21/2 130/22/2
f 136/20/2 134/23/2 135/21/2
f 135/24/1 133/17/1 128/25/1
f 131/19/1 127/26/1 128/25/1
f 130/22/2 129/27/2 136/20/2
f 135/21/2 128/28/2 130/22/2
f 133/17/1 131/19/1 128/25/1
usemtl mapa.015_NONE
f 89/29/2 90/30/2 92/31/2
f 90/29/3 89/30/3 94/31/3
f 104/32/19 97/31/19 93/30/19
f 93/32/6 102/31/6 104/29/6
f 99/32/1 100/31/1 91/30/1
f 91/32/1 95/31/1 99/29/1
f 94/32/20 98/31/20 90/30/20
f 94/32/20 97/31/20 98/29/20
f 95/32/20 91/31/20 90/29/20
f 89/32/5 100/31/5 101/29/5
f 89/29/5 103/30/5 102/32/5
f 89/32/5 92/31/5 100/29/5
f 105/29/6 106/30/6 108/31/6
f 106/29/1 105/30/1 110/31/1
f 120/32/2 113/31/2 109/30/2
f 109/32/2 118/31/2 120/29/2
f 115/32/3 116/31/3 107/30/3
f 107/32/3 111/31/3 115/29/3
f 110/32/20 114/31/20 106/30/20
f 110/32/20 113/31/20 114/29/20
f 111/32/20 107/31/20 106/29/20
f 105/32/5 116/31/5 117/29/5
f 105/29/5 119/30/5 118/32/5
f 105/32/5 108/31/5 116/29/5
f 121/29/3 122/30/3 124/31/3
f 122/29/6 121/30/6 126/31/6
f 136/32/1 129/31/1 125/30/1
f 125/32/1 134/31/1 136/29/1
f 131/32/2 132/31/2 123/30/2
f 123/32/2 127/31/2 131/29/2
f 126/32/20 130/31/20 122/30/20
f 126/32/20 129/31/20 130/29/20
f 127/32/20 123/31/20 122/29/20
f 121/32/5 132/31/5 133/29/5
f 121/29/5 135/30/5 134/32/5
f 121/32/5 124/31/5 132/29/5
f 90/30/2 91/32/2 92/31/2
f 89/30/3 93/32/3 94/31/3
f 97/31/6 94/29/6 93/30/6
f 100/31/1 92/29/1 91/30/1
f 98/31/20 96/29/20 90/30/20
f 96/30/20 95/32/20 90/29/20
f 103/30/28 89/32/28 101/29/28
f 93/31/5 89/29/5 102/32/5
f 106/30/6 107/32/6 108/31/6
f 105/30/1 109/32/1 110/31/1
f 113/31/2 110/29/2 109/30/2
f 116/31/3 108/29/3 107/30/3
f 114/31/20 112/29/20 106/30/20
f 112/30/21 111/32/21 106/29/21
f 119/30/29 105/32/29 117/29/29
f 109/31/5 105/29/5 118/32/5
f 122/30/3 123/32/3 124/31/3
f 121/30/19 125/32/19 126/31/19
f 129/31/1 126/29/1 125/30/1
f 132/31/2 124/29/2 123/30/2
f 130/31/30 128/29/30 122/30/30
f 128/30/20 127/32/20 122/29/20
f 135/30/5 121/32/5 133/29/5
f 125/31/5 121/29/5 134/32/5
usemtl mapa.001
f 169/1/6 170/2/6 171/3/6
f 170/4/1 172/5/1 173/6/1
f 172/7/31 174/3/31 175/2/31
f 174/8/3 169/9/3 176/10/3
f 172/11/5 169/12/5 174/13/5
f 170/2/6 173/7/6 171/3/6
f 172/5/1 175/14/1 173/6/1
f 174/3/2 176/1/2 175/2/2
f 169/9/3 171/15/3 176/10/3
f 170/16/5 169/12/5 172/11/5
usemtl mapa.005
f 137/1/1 138/2/1 139/3/1
f 138/4/2 140/5/2 141/6/2
f 140/7/3 142/3/3 143/2/3
f 142/8/6 137/9/6 144/10/6
f 140/11/5 137/12/5 142/13/5
f 138/2/1 141/7/1 139/3/1
f 140/5/2 143/14/2 141/6/2
f 142/3/8 144/1/8 143/2/8
f 137/9/6 139/15/6 144/10/6
f 138/16/5 137/12/5 140/11/5
usemtl mapa.006
f 145/1/1 146/2/1 147/3/1
f 146/4/2 148/5/2 149/6/2
f 148/7/3 150/3/3 151/2/3
f 150/8/6 145/9/6 152/10/6
f 148/11/5 145/12/5 150/13/5
f 146/2/1 149/7/1 147/3/1
f 148/5/2 151/14/2 149/6/2
f 150/3/3 152/1/3 151/2/3
f 145/9/6 147/15/6 152/10/6
f 146/16/5 145/12/5 148/11/5
usemtl mapa.008
f 153/1/6 154/2/6 155/3/6
f 154/4/1 156/5/1 157/6/1
f 156/7/2 158/3/2 159/2/2
f 158/8/3 153/9/3 160/10/3
f 156/11/5 153/12/5 158/13/5
f 154/2/6 157/7/6 155/3/6
f 156/5/1 159/14/1 157/6/1
f 158/3/2 160/1/2 159/2/2
f 153/9/3 155/15/3 160/10/3
f 154/16/5 153/12/5 156/11/5
usemtl mapa.010
f 161/1/6 162/2/6 163/3/6
f 162/4/1 164/5/1 165/6/1
f 164/7/2 166/3/2 167/2/2
f 166/8/8 161/9/8 168/10/8
f 164/11/5 161/12/5 166/13/5
f 162/2/6 165/7/6 163/3/6
f 164/5/1 167/14/1 165/6/1
f 166/3/31 168/1/31 167/2/31
f 161/9/8 163/15/8 168/10/8
f 162/16/5 161/12/5 164/11/5
